{
	"Stories": [{
		"storyTitle": "The Super-Cheap Canadian cellphone deals only Americans can buy",
		"posted": "May 3, 2016",
		"area": "News",
		"headline": "Small Canadian companies say they can't persuade big providers to work with them",
		"fullText": "Timi Thornton loves her cellphone plan. She pays just $19 a month for a no-contract deal. Thornton's provider is Waterloo, Ont., company TextNow. Her deal is much cheaper than typical cellular plans because it includes only a small amount of data. To make up for that Thornton's service also operates using Wi-Fi. When she has internet access, she can text, talk and surf all she wants. Thornton lives on disability benefits. She believes it's important that low-income people like her have access to cheap plans.",
		"url": "http://www.cbc.ca/news/business/cellphones-crtc-cheap-plans-1.3562679"
	}]
}